…
```r
explore_data(setup, type = 'tabular', factors = c('agecat', 'veh_body'), by = 'pol_yr')
#> $agecat
#> # A tibble: 30 x 5
#>    agecat pol_yr weight_sum target_sum target_avg
#>    <fct>  <fct>       <int>      <dbl>      <dbl>
#>  1 1      2000           75    157824.      2276.
#>  2 1      2001           89    199138.      2334.
#>  3 1      2002           84    233676.      2845.
#>  4 1      2003           94    199956.      2254.
#>  5 1      2004           82    171626.      2337.
#>  6 2      2000          179    389759.      2252.
#>  7 2      2001          174    272381.      1714.
#>  8 2      2002          162    305836.      2019.
#>  9 2      2003          147    278558.      1999.
#> 10 2      2004          148    299774.      2135.
#> # ... with 20 more rows
#> 
#> $veh_body
#> # A tibble: 60 x 5
#>    veh_body pol_yr weight_sum target_sum target_avg
#>    <fct>    <fct>       <int>      <dbl>      <dbl>
#>  1 BUS      2000            1       491.       491.
#>  2 BUS      2001            4      8525.      2410.
#>  3 BUS      2002            1       876.       876.
#>  4 BUS      2003            1      1033.      1033.
#>  5 BUS      2004            2       952.       476.
#>  6 CONVT    2001            1      6126.      6126.
#>  7 CONVT    2003            1       233        233 
#>  8 CONVT    2004            1       530        530 
#>  9 COUPE    2000           11     14198.      1470.
#> 10 COUPE    2001           18     51970.      2916.
#> # ... with 50 more rows
```
…
